{
  "urls": {
    "project": "https://mooncat.community",
    "license": "https://mooncat.community/mooncatlicense",
    "boutique": "https://boutique.mooncat.community",
    "purrse": "https://purrse.mooncat.community",
    "chainStation": "https://chainstation.mooncatrescue.com"
  },
  "cache": {
    "mooncat": 3600,
    "mooncat-named": 86400,
    "accessorized-image": 3600,
    "accessory": 43200,
    "lootprint": 86400
  },
  "names": {
    "malformed": [
      680, 8014, 8443, 8958, 9871, 16511, 16897, 20531, 22849, 23599, 24980
    ],
    "profane": [4420]
  },
  "accessories": {
    "costumes": [
      387, 475, 513, 514, 516, 517, 519, 520, 521, 522, 534, 535, 536, 538, 539, 540,
      541, 544, 584, 695, 696, 702, 704, 714, 717, 718, 719, 767, 776, 777, 778, 781, 783, 842, 850, 861, 920, 928,
      1007, 1016, 1030, 1032, 1052, 1061, 1076, 1078, 1080, 1084, 1085, 1087, 1091, 1096, 1112, 1116, 1123, 1135, 1147, 1162, 1169, 1186, 1187
    ]
  },
  "moments": [
    {
      "name": "Suits On for Sotheby's",
      "moonCats": [
        0, 6, 22, 39, 41, 54, 75, 86, 242, 265, 304, 368, 391, 505, 680, 754,
        790, 800, 899, 930, 1046, 1069, 1226, 1264, 1289, 2188, 2366, 2468,
        2512, 2744, 2935, 3028, 3137, 3138, 3624, 5724, 5787, 5987, 6170, 6510,
        6612, 6755, 6967, 7001, 7016, 7032, 7051, 7210, 7279, 7473, 7892, 8165,
        8318, 8982, 9237, 9303, 9325, 9366, 9385, 9592, 10368, 10383, 10484,
        10702, 10772, 11143, 11202, 11246, 11625, 12164, 12358, 12570, 12693,
        12772, 13274, 13358, 13384, 13464, 13513, 13548, 13872, 14422, 14597,
        14752, 14955, 14981, 15397, 15404, 15463, 15508, 15687, 15819, 16112,
        16148, 16175, 16518, 16968, 17040, 17080, 17143, 17368, 17587, 17806,
        17970, 18043, 18074, 18189, 18590, 18759, 18979, 19049, 19150, 19297,
        19341, 19397, 19604, 19872, 19931, 20304, 20523, 20875, 21088, 21226,
        21435, 21852, 22255, 22382, 22813, 22827, 22956, 23290, 23527, 23603,
        23785, 24178, 24458, 24469, 24590, 24788, 24928, 25025, 25242
      ]
    },
    {
      "name": "Fright Night",
      "moonCats": [
        0, 22, 86, 898, 1264, 1289, 1683, 2935, 6945, 6963, 7201, 8318, 9235, 9329, 9472, 9665,
        10496, 12164, 12520, 12950, 13358, 13872, 14166, 14597, 15361, 15404, 17970, 19604, 20800,
        20802, 21175, 22808, 22897, 24160, 24729, 25206
      ]
    },
    {
      "name": "Gobblers Retreat",
      "moonCats": [
        899, 17779, 0, 1038, 1289, 17286, 22, 22915, 7373, 11625, 13872, 25044, 18189, 3632, 22350,
        23527, 13274, 86, 17806, 21090, 18576, 21528, 25206, 3763, 16750, 11120, 768, 825, 6321,
        13591, 21757, 23034, 13680, 14372, 11426, 17628, 7500, 16872, 303, 14289, 14637, 10484,
        15846, 19604, 15401, 14913, 14073, 10, 7565, 13421, 17252, 11246, 19440, 6667, 25438, 10148,
        23266, 18355, 22176, 20093, 12349, 16333, 25347, 8982, 22229, 19303, 1790, 22724, 68, 17970,
        2935
      ]
    },
    {
      "name": "Polar Party",
      "moonCats": [
        0, 22, 86, 227, 399, 768, 825, 1015, 1289, 1459, 1790, 2935, 5678, 5980, 6322, 6510, 6629,
        7473, 7848, 8499, 8704, 10148, 10190, 11120, 11213, 11625, 12485, 13126, 13234, 13274,
        13360, 13384, 13872, 14278, 14327, 14333, 14372, 14458, 15401, 15404, 16085, 16444, 16674,
        16889, 17690, 17806, 17970, 18189, 18290, 18620, 19334, 19604, 20792, 21009, 21090, 22857,
        23927, 24739, 25206, 25347
      ]
    },
    {
      "name": "Cupid Crown",
      "moonCats": [
        0, 12562, 21009, 20445, 6366, 8537, 13126, 23741, 9588, 1263, 10442, 400, 12716, 6153, 86,
        12162, 17150, 22295, 2922, 13360, 1069, 9871, 4720, 9292, 16213, 13274, 7767, 7969, 21124,
        16900, 23681, 7473, 2665, 15404, 22199, 23515, 2972, 18143, 14317, 15933, 15400, 2923,
        3220, 17944, 19764, 19211, 8374, 24884, 17661, 1139, 12322, 440, 14333, 898, 17288, 17806,
        1459, 14278, 6629, 23677, 18653, 12553, 17450, 13239, 13847, 12828, 24337, 19107, 1264,
        6755, 22382, 23034, 23527, 13872, 21757, 14761, 22, 1289, 2935, 12950, 17611, 17970, 18245,
        19604
      ]
    }
  ],
  "spokescats": {
    "0": { "id": 0, "flavor": "Station Crasher" },
    "2723": { "id": 1, "flavor": "ZomBerry" },
    "10484": { "id": 2, "flavor": "Dapper" },
    "3294": { "id": 3, "flavor": "Pure 2017 Kitty Juice" },
    "1756": {
      "id": 4,
      "flavor": "Gm              Milk of Purring             Gn"
    },
    "12693": { "id": 5, "flavor": "3 Star Garf" },
    "1337": { "id": 6, "flavor": "Moon-Mate" },
    "2165": { "id": 7, "flavor": "Cosmonaut's Cold Ones" },
    "1039": { "id": 8, "flavor": "Garfield sips" },
    "476": { "id": 9, "flavor": "Day1 Alien's Favorite" },
    "217": { "id": 10, "flavor": "Black as Midnight on a Moonless Night" },
    "1117": { "id": 11, "flavor": "White Genesis Pop" },
    "15401": { "id": 12, "flavor": "Kuipurr Belt Kool" },
    "5766": { "id": 13, "flavor": "Glamour Puss" },
    "20451": { "id": 14, "flavor": "Parallax Alien" },
    "24673": { "id": 15, "flavor": "Six-Nipped Golden Kitten Attack Ale  " },
    "2726": { "id": 16, "flavor": "Stellar Starberry" },
    "24704": { "id": 17, "flavor": "Milky Whey" },
    "527": { "id": 18, "flavor": "The Invisible Drink" },
    "39": { "id": 19, "flavor": "Whiskers' Astro Ginger Magic Ice" },
    "18074": { "id": 20, "flavor": "Funky Fruit Fizz" },
    "1289": { "id": 21, "flavor": "Midnight Blue Raspberry Stardust" },
    "1069": { "id": 22, "flavor": "Meowtain Purrfect Pawnch" },
    "6939": { "id": 23, "flavor": "Catty Refresher" },
    "14949": { "id": 24, "flavor": "Alien's Tripel Speciale" },
    "6": { "id": 25, "flavor": "mister moo's vegas vacation" },
    "9": {
      "id": 26,
      "flavor": ".                  #9 Dream                   Gn"
    },
    "19507": { "id": 27, "flavor": "Mather's Sour Pucker" },
    "41": { "id": 28, "flavor": "Coke Royal Mint Nr.41 by CRL" },
    "1514": { "id": 29, "flavor": "Hydra-tion Station" },
    "1218": { "id": 30, "flavor": "Tropical Titan + Saturn Splash" },
    "13358": { "id": 31, "flavor": "80's Elixir" },
    "23677": { "id": 32, "flavor": "Catsymalist Fizzy Sparkle" },
    "2665": { "id": 33, "flavor": "WAGMI" },
    "75": { "id": 34, "flavor": "Blueberry's Royal Elixir" },
    "3138": { "id": 35, "flavor": "Midnight Meowjito" },
    "24234": { "id": 36, "flavor": "TokenAde" },
    "1070": { "id": 37, "flavor": "Ammonia Blast" },
    "10": { "id": 38, "flavor": "Collector's Edition" },
    "18189": { "id": 39, "flavor": "Pixel Star" },
    "13349": { "id": 40, "flavor": "Panther Milk" },
    "1264": { "id": 41, "flavor": "buff cat" },
    "302": { "id": 42, "flavor": "Day 1" },
    "19604": { "id": 43, "flavor": "Triple Pixel Punch" },
    "17970": { "id": 44, "flavor": "Paws' Bubbly Refresher" },
    "453": { "id": 45, "flavor": "Blueberry Bantha Milk" },
    "3632": { "id": 46, "flavor": "Paw-Brewed Pixel" },
    "5670": { "id": 47, "flavor": "StellaCat Soda" },
    "9665": { "id": 48, "flavor": "Garfield's Lasagna - Nutrient Shake" },
    "283": { "id": 49, "flavor": "Lion Malt" },
    "1382": { "id": 50, "flavor": "Frida's Feline Fresca" },
    "6755": { "id": 51, "flavor": "Who Loves Orange Soda?!" },
    "13872": { "id": 52, "flavor": "CopyCat Cola" },
    "19373": { "id": 53, "flavor": "Gutter Juice Cola" },
    "20800": { "id": 54, "flavor": "Tuna Moon Juice" },
    "403": { "id": 55, "flavor": "Day One Daiquiri" },
    "3204": { "id": 56, "flavor": "2017 Fizzy Bubbly" },
    "86": { "id": 57, "flavor": "GENESIS KAIJU PURE BLACK" },
    "1684": { "id": 58, "flavor": "Void Slurp" },
    "12": { "id": 59, "flavor": "Thirst Drink Panther" },
    "22313": { "id": 60, "flavor": "Cherry Mecha" },
    "22": { "id": 61, "flavor": "Doc Wander's Patent Ponderade" },
    "3137": { "id": 62, "flavor": "Meowberry Purrfection" },
    "8125": { "id": 63, "flavor": "probably nothing serum" },
    "899": { "id": 64, "flavor": "formula 899" },
    "7500": { "id": 65, "flavor": "gm" },
    "13675": { "id": 66, "flavor": "Milky Way Juice" },
    "14737": { "id": 67, "flavor": "WizardX style" },
    "419": { "id": 68, "flavor": "MeowTwo #419" },
    "24335": { "id": 69, "flavor": "Diet Scratching Post Punch" },
    "1829": { "id": 70, "flavor": "Magic Bus Brew" },
    "13097": { "id": 71, "flavor": "Sedating Refresher" },
    "2710": { "id": 72, "flavor": "Red Moon Dew" },
    "7265": { "id": 73, "flavor": "Popsi Purrfect" },
    "526": { "id": 74, "flavor": "Pure Genesis MoonCat #526" },
    "19533": { "id": 75, "flavor": "Machine Cat" },
    "635": { "id": 76, "flavor": "inversebrah" },
    "6612": { "id": 77, "flavor": "Moon Rum" },
    "3028": { "id": 78, "flavor": "Fuchsia Meow-garita" },
    "2807": { "id": 79, "flavor": "Orangebeard's Delight" },
    "4723": { "id": 80, "flavor": "- Drink Me -" },
    "15508": { "id": 81, "flavor": "Salem's Soiree Seltzer" },
    "11120": { "id": 82, "flavor": "Kepler's Supurrnova" },
    "11676": { "id": 83, "flavor": "Paw-Brewed Triple-Nipped Cougar Pop" }
  }
}
